/home/shafeekpm/Music/stm_experiments/Bl-072z lrwan/TF-Luna/Software/LoRaWAN/App/lora_app.c:424:13:OnTxTimerEvent	8	static
/home/shafeekpm/Music/stm_experiments/Bl-072z lrwan/TF-Luna/Software/LoRaWAN/App/lora_app.c:514:13:OnMacProcessNotify	8	static
/home/shafeekpm/Music/stm_experiments/Bl-072z lrwan/TF-Luna/Software/LoRaWAN/App/lora_app.c:295:13:OnRxData	40	static
/home/shafeekpm/Music/stm_experiments/Bl-072z lrwan/TF-Luna/Software/LoRaWAN/App/lora_app.c:444:13:OnRxTimerLedEvent	8	static
/home/shafeekpm/Music/stm_experiments/Bl-072z lrwan/TF-Luna/Software/LoRaWAN/App/lora_app.c:439:13:OnTxTimerLedEvent	8	static
/home/shafeekpm/Music/stm_experiments/Bl-072z lrwan/TF-Luna/Software/LoRaWAN/App/lora_app.c:363:13:SendTxData	40	static
/home/shafeekpm/Music/stm_experiments/Bl-072z lrwan/TF-Luna/Software/LoRaWAN/App/lora_app.c:449:13:OnJoinTimerLedEvent	8	static
/home/shafeekpm/Music/stm_experiments/Bl-072z lrwan/TF-Luna/Software/LoRaWAN/App/lora_app.c:456:13:OnTxData	24	static
/home/shafeekpm/Music/stm_experiments/Bl-072z lrwan/TF-Luna/Software/LoRaWAN/App/lora_app.c:485:13:OnJoinRequest	16	static
/home/shafeekpm/Music/stm_experiments/Bl-072z lrwan/TF-Luna/Software/LoRaWAN/App/lora_app.c:220:6:LoRaWAN_Init	40	static
