/home/shafeekpm/Music/stm_experiments/Bl-072z lrwan/TF-Luna/Software/Middlewares/Third_Party/LoRaWAN/Mac/LoRaMacSerializer.c:36:27:LoRaMacSerializerJoinRequest	8	static
/home/shafeekpm/Music/stm_experiments/Bl-072z lrwan/TF-Luna/Software/Middlewares/Third_Party/LoRaWAN/Mac/LoRaMacSerializer.c:72:27:LoRaMacSerializerReJoinType1	8	static
/home/shafeekpm/Music/stm_experiments/Bl-072z lrwan/TF-Luna/Software/Middlewares/Third_Party/LoRaWAN/Mac/LoRaMacSerializer.c:103:27:LoRaMacSerializerReJoinType0or2	8	static
/home/shafeekpm/Music/stm_experiments/Bl-072z lrwan/TF-Luna/Software/Middlewares/Third_Party/LoRaWAN/Mac/LoRaMacSerializer.c:134:27:LoRaMacSerializerData	16	static
